material muro/Diffuse
{
  technique
  {
    pass
    {
      ambient 0.5 0.5 0.5 1.0
      diffuse 1.0 1.0 1.0 1.0
      specular 0.0 0.0 0.0 1.0 0.5

      texture_unit
      {
        Concrete_Block_8x8_Gray.jpg
        filtering anistropic
        max_anisotropic 16
        scale 0.1 0.1
      }
    }
  }
}