<?xml version="1.0" encoding="UTF-8" standalone="no" ?>
<COLLADA xmlns="http://www.collada.org/2005/11/COLLADASchema" version="1.4.1">
    <asset>
        <contributor>
            <authoring_tool>SketchUp 16.0.19911</authoring_tool>
        </contributor>
        <created>2017-08-07T12:54:20Z</created>
        <modified>2017-08-07T12:54:20Z</modified>
        <unit meter="0.0254" name="inch" />
        <up_axis>Z_UP</up_axis>
    </asset>
    <library_visual_scenes>
        <visual_scene id="ID1">
            <node name="SketchUp">
                <node id="skp_camera" name="Last Saved SketchUp View">
                    <lookat>10204.97 -14167.62 5570.601 9210.988 -12695.02 5120.722 -0.1373294 0.203457 0.9694049</lookat>
                </node>
                <node id="ID2" name="group_0">
                    <matrix>1 0 0 -5219.157 0 1 0 -787.4827 0 0 1 0 0 0 0 1</matrix>
                    <instance_geometry url="#ID3">
                        <bind_material>
                            <technique_common>
                                <instance_material symbol="Material2" target="#ID4">
                                    <bind_vertex_input semantic="UVSET0" input_semantic="TEXCOORD" input_set="0" />
                                </instance_material>
                                <instance_material symbol="Material3" target="#ID14">
                                    <bind_vertex_input semantic="UVSET0" input_semantic="TEXCOORD" input_set="0" />
                                </instance_material>
                            </technique_common>
                        </bind_material>
                    </instance_geometry>
                    <instance_geometry url="#ID20">
                        <bind_material>
                            <technique_common>
                                <instance_material symbol="Material2" target="#ID4">
                                    <bind_vertex_input semantic="UVSET0" input_semantic="TEXCOORD" input_set="0" />
                                </instance_material>
                                <instance_material symbol="Material3" target="#ID14">
                                    <bind_vertex_input semantic="UVSET0" input_semantic="TEXCOORD" input_set="0" />
                                </instance_material>
                            </technique_common>
                        </bind_material>
                    </instance_geometry>
                    <instance_geometry url="#ID30">
                        <bind_material>
                            <technique_common>
                                <instance_material symbol="Material2" target="#ID4">
                                    <bind_vertex_input semantic="UVSET0" input_semantic="TEXCOORD" input_set="0" />
                                </instance_material>
                                <instance_material symbol="Material3" target="#ID14">
                                    <bind_vertex_input semantic="UVSET0" input_semantic="TEXCOORD" input_set="0" />
                                </instance_material>
                            </technique_common>
                        </bind_material>
                    </instance_geometry>
                    <instance_geometry url="#ID40">
                        <bind_material>
                            <technique_common>
                                <instance_material symbol="Material2" target="#ID14">
                                    <bind_vertex_input semantic="UVSET0" input_semantic="TEXCOORD" input_set="0" />
                                </instance_material>
                            </technique_common>
                        </bind_material>
                    </instance_geometry>
                </node>
            </node>
        </visual_scene>
    </library_visual_scenes>
    <library_geometries>
        <geometry id="ID3">
            <mesh>
                <source id="ID9">
                    <float_array id="ID16" count="504">-21.49568 6147.746 0 0 6126.25 0 -21.49568 -21.49568 0 5922.058 6147.746 0 5900.562 6126.25 0 5900.562 0 0 0 0 0 5922.058 -21.49568 0 5922.058 4785.182 0 5922.058 4391.481 0 5922.058 4391.481 0 5922.058 4785.182 0 5922.058 -21.49568 0 5922.058 6147.746 0 5900.562 0 0 0 0 0 0 6126.25 0 -21.49568 -21.49568 0 5900.562 6126.25 0 -21.49568 6147.746 0 -21.49568 -21.49568 0 5922.058 -21.49568 0 -21.49568 6147.746 0 5922.058 6147.746 0 5922.058 4785.182 0 5922.058 4391.481 0 0 0 0 0 6126.25 0 5900.562 0 0 5900.562 6126.25 0 5922.058 -21.49568 393.7008 -21.49568 -21.49568 0 5922.058 -21.49568 0 -21.49568 -21.49568 393.7008 -21.49568 -21.49568 393.7008 5922.058 -21.49568 393.7008 -21.49568 -21.49568 0 5922.058 -21.49568 0 5922.058 -21.49568 393.7008 -21.49568 -21.49568 393.7008 -21.49568 6147.746 393.7008 -21.49568 -21.49568 0 -21.49568 -21.49568 393.7008 -21.49568 6147.746 0 -21.49568 6147.746 0 -21.49568 6147.746 393.7008 -21.49568 -21.49568 0 -21.49568 -21.49568 393.7008 -21.49568 6147.746 393.7008 -21.49568 6147.746 393.7008 5922.058 6147.746 0 -21.49568 6147.746 0 5922.058 6147.746 393.7008 5922.058 6147.746 393.7008 -21.49568 6147.746 393.7008 5922.058 6147.746 0 -21.49568 6147.746 0 5922.058 6147.746 393.7008 5922.058 6147.746 0 5922.058 4785.182 393.7008 5922.058 4785.182 0 5922.058 6147.746 393.7008 5922.058 6147.746 393.7008 5922.058 6147.746 0 5922.058 4785.182 393.7008 5922.058 4785.182 0 5922.058 4785.182 393.7008 5922.058 4391.481 0 5922.058 -21.49568 393.7008 5922.058 -21.49568 0 5922.058 4391.481 393.7008 5922.058 4391.481 393.7008 5922.058 4391.481 0 5922.058 -21.49568 393.7008 5922.058 -21.49568 0 5922.058 4391.481 393.7008 -64.48705 6190.737 393.7008 -21.49568 6147.746 393.7008 -64.48705 -64.48705 393.7008 5965.05 6190.737 393.7008 5922.058 6147.746 393.7008 5922.058 4785.182 393.7008 5965.05 4785.182 393.7008 5965.05 4391.481 393.7008 5922.058 -21.49568 393.7008 5922.058 4391.481 393.7008 -21.49568 -21.49568 393.7008 5965.05 -64.48705 393.7008 5965.05 4391.481 393.7008 5922.058 -21.49568 393.7008 5965.05 -64.48705 393.7008 -21.49568 -21.49568 393.7008 -21.49568 6147.746 393.7008 -64.48705 -64.48705 393.7008 5922.058 4391.481 393.7008 5965.05 4785.182 393.7008 5965.05 6190.737 393.7008 5922.058 4785.182 393.7008 5922.058 6147.746 393.7008 -64.48705 6190.737 393.7008 5965.05 4785.182 393.7008 5965.05 4391.481 393.7008 5965.05 -64.48705 393.7008 -64.48705 -64.48705 393.7008 -64.48705 6190.737 393.7008 5965.05 6190.737 393.7008 5922.058 4785.182 393.7008 5965.05 4785.182 0 5922.058 4785.182 0 5965.05 4785.182 393.7008 5965.05 4785.182 393.7008 5922.058 4785.182 393.7008 5965.05 4785.182 0 5922.058 4785.182 0 5965.05 4785.182 0 5965.05 4391.481 393.7008 5922.058 4391.481 0 5965.05 4391.481 0 5922.058 4391.481 393.7008 5922.058 4391.481 393.7008 5965.05 4391.481 393.7008 5922.058 4391.481 0 5965.05 4391.481 0 5965.05 4391.481 0 5965.05 4391.481 393.7008 5965.05 -64.48705 0 5965.05 -64.48705 393.7008 5965.05 4391.481 0 5965.05 4391.481 0 5965.05 4391.481 393.7008 5965.05 -64.48705 0 5965.05 -64.48705 393.7008 5965.05 -64.48705 0 -64.48705 -64.48705 393.7008 5965.05 -64.48705 0 -64.48705 -64.48705 0 5965.05 -64.48705 393.7008 5965.05 -64.48705 393.7008 -64.48705 -64.48705 393.7008 5965.05 -64.48705 0 -64.48705 -64.48705 0 -64.48705 -64.48705 0 -64.48705 6190.737 0 -64.48705 -64.48705 393.7008 -64.48705 -64.48705 0 -64.48705 6190.737 393.7008 -64.48705 6190.737 393.7008 -64.48705 6190.737 0 -64.48705 -64.48705 393.7008 -64.48705 -64.48705 0 -64.48705 6190.737 0 5965.05 6190.737 393.7008 -64.48705 6190.737 0 5965.05 6190.737 0 -64.48705 6190.737 393.7008 -64.48705 6190.737 393.7008 5965.05 6190.737 393.7008 -64.48705 6190.737 0 5965.05 6190.737 0 5965.05 6190.737 0 5965.05 6190.737 393.7008 5965.05 4785.182 0 5965.05 4785.182 393.7008 5965.05 6190.737 0 5965.05 6190.737 0 5965.05 6190.737 393.7008 5965.05 4785.182 0 5965.05 4785.182 393.7008</float_array>
                    <technique_common>
                        <accessor count="168" source="#ID16" stride="3">
                            <param name="X" type="float" />
                            <param name="Y" type="float" />
                            <param name="Z" type="float" />
                        </accessor>
                    </technique_common>
                </source>
                <source id="ID10">
                    <float_array id="ID17" count="504">0 0 -1 0 0 -1 0 0 -1 0 0 -1 0 0 -1 0 0 -1 0 0 -1 0 0 -1 0 0 -1 0 0 -1 -0 -0 1 -0 -0 1 -0 -0 1 -0 -0 1 -0 -0 1 -0 -0 1 -0 -0 1 -0 -0 1 -0 -0 1 -0 -0 1 0 0 0 0 0 0 0 0 0 0 0 0 0 0 0 0 0 0 0 0 0 0 0 0 0 0 0 0 0 0 0 -1 0 0 -1 0 0 -1 0 0 -1 0 -0 1 -0 -0 1 -0 -0 1 -0 -0 1 -0 0 0 0 0 0 0 -1 -0 -0 -1 -0 -0 -1 -0 -0 -1 -0 -0 1 0 0 1 0 0 1 0 0 1 0 0 0 0 0 0 1 0 0 1 0 0 1 0 0 1 0 -0 -1 -0 -0 -1 -0 -0 -1 -0 -0 -1 -0 0 0 0 1 0 0 1 0 0 1 0 0 1 0 0 -1 -0 -0 -1 -0 -0 -1 -0 -0 -1 -0 -0 0 0 0 1 0 0 1 0 0 1 0 0 1 0 0 -1 -0 -0 -1 -0 -0 -1 -0 -0 -1 -0 -0 0 0 0 0 0 -1 0 0 -1 0 0 -1 0 0 -1 0 0 -1 0 0 -1 0 0 -1 0 0 -1 0 0 -1 0 0 -1 0 0 -1 0 0 -1 -0 -0 1 -0 -0 1 -0 -0 1 -0 -0 1 -0 -0 1 -0 -0 1 -0 -0 1 -0 -0 1 -0 -0 1 -0 -0 1 -0 -0 1 -0 -0 1 0 0 0 0 0 0 0 0 0 0 0 0 0 0 0 0 0 0 0 1 0 0 1 0 0 1 0 0 1 0 -0 -1 -0 -0 -1 -0 -0 -1 -0 -0 -1 -0 0 0 0 0 -1 0 0 -1 0 0 -1 0 0 -1 0 -0 1 -0 -0 1 -0 -0 1 -0 -0 1 -0 0 0 0 -1 0 0 -1 0 0 -1 0 0 -1 0 0 1 -0 -0 1 -0 -0 1 -0 -0 1 -0 -0 0 0 0 0 1 0 0 1 0 0 1 0 0 1 0 -0 -1 -0 -0 -1 -0 -0 -1 -0 -0 -1 -0 0 0 0 1 0 0 1 0 0 1 0 0 1 0 0 -1 -0 -0 -1 -0 -0 -1 -0 -0 -1 -0 -0 0 0 0 0 -1 0 0 -1 0 0 -1 0 0 -1 0 -0 1 -0 -0 1 -0 -0 1 -0 -0 1 -0 0 0 0 -1 0 0 -1 0 0 -1 0 0 -1 0 0 1 -0 -0 1 -0 -0 1 -0 -0 1 -0 -0</float_array>
                    <technique_common>
                        <accessor count="168" source="#ID17" stride="3">
                            <param name="X" type="float" />
                            <param name="Y" type="float" />
                            <param name="Z" type="float" />
                        </accessor>
                    </technique_common>
                </source>
                <source id="ID11">
                    <Name_array id="ID19" count="0" />
                    <technique_common>
                        <accessor count="0" source="#ID19" stride="1">
                            <param name="skp_material" type="Name" />
                        </accessor>
                    </technique_common>
                </source>
                <source id="ID13">
                    <float_array id="ID18" count="96">0.1091981 31.23055 0 31.12135 0.1091981 -0.1091981 -30.08406 31.23055 -29.97486 31.12135 -29.97486 0 0 0 -30.08406 -0.1091981 -30.08406 24.30872 -30.08406 22.30872 30.08406 2 -0.1091981 0 30.08406 0 -0.1091981 2 -31.23055 2 0.1091981 0 0.1091981 2 -31.23055 0 -30.08406 0 -30.08406 2 31.23055 0 24.30872 2 24.30872 0 31.23055 2 22.30872 0 22.30872 2 0.3275942 31.44894 0.3275942 -0.3275942 -30.30245 31.44894 -30.30245 24.30872 -30.30245 22.30872 -30.30245 -0.3275942 -30.30245 0 -30.30245 2 30.30245 2 30.30245 0 -22.30872 2 0.3275942 0 0.3275942 2 -22.30872 0 31.44894 0 -0.3275942 2 -0.3275942 0 31.44894 2 -31.44894 2 -24.30872 0 -24.30872 2 -31.44894 0</float_array>
                    <technique_common>
                        <accessor count="48" source="#ID18" stride="2">
                            <param name="S" type="float" />
                            <param name="T" type="float" />
                        </accessor>
                    </technique_common>
                </source>
                <vertices id="ID12">
                    <input semantic="POSITION" source="#ID9" />
                    <input semantic="NORMAL" source="#ID10" />
                </vertices>
                <triangles count="88" material="Material2">
                    <input offset="0" semantic="VERTEX" source="#ID12" />
                    <input offset="1" semantic="TEXCOORD" source="#ID13" />
                    <p>0 0 1 1 2 2 1 1 0 0 3 3 1 1 3 3 4 4 4 4 3 3 5 5 2 2 6 6 7 7 6 6 2 2 1 1 7 7 6 6 5 5 7 7 5 5 3 3 7 7 3 3 8 8 7 7 8 8 9 9 10 9 11 8 12 7 11 8 13 3 12 7 13 3 14 5 12 7 14 5 15 6 12 7 16 1 17 2 15 6 12 7 15 6 17 2 14 5 13 3 18 4 18 4 13 3 16 1 13 3 19 0 16 1 17 2 16 1 19 0 30 10 31 11 32 12 31 11 30 10 33 13 34 13 35 10 36 11 37 12 36 11 35 10 40 14 41 15 42 16 41 15 40 14 43 17 44 17 45 14 46 15 47 16 46 15 45 14 49 16 50 18 51 15 50 18 49 16 52 19 53 19 54 16 55 18 56 15 55 18 54 16 58 20 59 21 60 22 59 21 58 20 61 23 62 23 63 20 64 21 65 22 64 21 63 20 67 24 68 13 69 11 68 13 67 24 70 25 71 25 72 24 73 13 74 11 73 13 72 24 76 26 77 0 78 27 77 0 76 26 79 28 77 0 79 28 80 3 80 3 79 28 81 8 81 8 79 28 82 29 83 30 84 7 85 9 78 27 86 2 87 31 86 2 78 27 77 0 87 31 86 2 84 7 87 31 84 7 83 30 88 30 89 7 90 31 89 7 91 2 90 31 92 0 93 27 91 2 90 31 91 2 93 27 94 9 89 7 88 30 95 29 96 28 97 8 97 8 96 28 98 3 98 3 96 28 92 0 96 28 99 26 92 0 93 27 92 0 99 26 106 19 107 32 108 18 107 32 106 19 109 33 110 33 111 19 112 32 113 18 112 32 111 19 115 34 116 12 117 35 116 12 115 34 118 10 119 10 120 34 121 12 122 35 121 12 120 34 124 36 125 37 126 38 125 37 124 36 127 39 128 39 129 36 130 37 131 38 130 37 129 36 133 38 134 32 135 37 134 32 133 38 136 33 137 33 138 38 139 32 140 37 139 32 138 38 142 40 143 41 144 42 143 41 142 40 145 43 146 43 147 40 148 41 149 42 148 41 147 40 151 34 152 42 153 35 152 42 151 34 154 41 155 41 156 34 157 42 158 35 157 42 156 34 160 44 161 45 162 46 161 45 160 44 163 47 164 47 165 44 166 45 167 46 166 45 165 44</p>
                </triangles>
                <lines count="41" material="Material3">
                    <input offset="0" semantic="VERTEX" source="#ID12" />
                    <p>20 21 22 20 23 22 24 23 25 24 21 25 26 27 28 26 29 28 27 29 21 38 39 38 20 39 48 39 22 48 57 48 23 57 66 57 24 66 75 25 38 75 100 66 101 75 102 101 103 102 104 103 105 104 100 105 114 100 114 24 101 123 123 25 132 123 132 102 141 132 141 103 150 141 150 104 159 150 159 105 114 159</p>
                </lines>
            </mesh>
        </geometry>
        <geometry id="ID20">
            <mesh>
                <source id="ID21">
                    <float_array id="ID26" count="72">-78.74016 6204.99 0 -75.23489 6201.485 0 -78.74016 -78.74016 0 5979.303 6204.99 0 5975.797 6201.485 0 5975.797 -75.23489 0 -75.23489 -75.23489 0 5979.303 -78.74016 0 5979.303 6204.99 0 5975.797 -75.23489 0 5979.303 -78.74016 0 -75.23489 -75.23489 0 -75.23489 6201.485 0 -78.74016 -78.74016 0 5975.797 6201.485 0 -78.74016 6204.99 0 -78.74016 6204.99 0 -78.74016 -78.74016 0 5979.303 6204.99 0 5979.303 -78.74016 0 -75.23489 6201.485 0 -75.23489 -75.23489 0 5975.797 -75.23489 0 5975.797 6201.485 0</float_array>
                    <technique_common>
                        <accessor count="24" source="#ID26" stride="3">
                            <param name="X" type="float" />
                            <param name="Y" type="float" />
                            <param name="Z" type="float" />
                        </accessor>
                    </technique_common>
                </source>
                <source id="ID22">
                    <float_array id="ID27" count="72">0 0 -1 0 0 -1 0 0 -1 0 0 -1 0 0 -1 0 0 -1 0 0 -1 0 0 -1 -0 -0 1 -0 -0 1 -0 -0 1 -0 -0 1 -0 -0 1 -0 -0 1 -0 -0 1 -0 -0 1 0 0 0 0 0 0 0 0 0 0 0 0 0 0 0 0 0 0 0 0 0 0 0 0</float_array>
                    <technique_common>
                        <accessor count="24" source="#ID27" stride="3">
                            <param name="X" type="float" />
                            <param name="Y" type="float" />
                            <param name="Z" type="float" />
                        </accessor>
                    </technique_common>
                </source>
                <source id="ID23">
                    <Name_array id="ID29" count="0" />
                    <technique_common>
                        <accessor count="0" source="#ID29" stride="1">
                            <param name="skp_material" type="Name" />
                        </accessor>
                    </technique_common>
                </source>
                <source id="ID25">
                    <float_array id="ID28" count="16">0.4 31.52135 0.3821933 31.50354 0.4 -0.4 -30.37486 31.52135 -30.35705 31.50354 -30.35705 -0.3821933 0.3821933 -0.3821933 -30.37486 -0.4</float_array>
                    <technique_common>
                        <accessor count="8" source="#ID28" stride="2">
                            <param name="S" type="float" />
                            <param name="T" type="float" />
                        </accessor>
                    </technique_common>
                </source>
                <vertices id="ID24">
                    <input semantic="POSITION" source="#ID21" />
                    <input semantic="NORMAL" source="#ID22" />
                </vertices>
                <triangles count="16" material="Material2">
                    <input offset="0" semantic="VERTEX" source="#ID24" />
                    <input offset="1" semantic="TEXCOORD" source="#ID25" />
                    <p>0 0 1 1 2 2 1 1 0 0 3 3 1 1 3 3 4 4 4 4 3 3 5 5 2 2 6 6 7 7 6 6 2 2 1 1 7 7 6 6 5 5 7 7 5 5 3 3 8 3 9 5 10 7 9 5 11 6 10 7 12 1 13 2 11 6 10 7 11 6 13 2 9 5 8 3 14 4 14 4 8 3 12 1 8 3 15 0 12 1 13 2 12 1 15 0</p>
                </triangles>
                <lines count="8" material="Material3">
                    <input offset="0" semantic="VERTEX" source="#ID24" />
                    <p>16 17 18 16 19 18 17 19 20 21 21 22 22 23 23 20</p>
                </lines>
            </mesh>
        </geometry>
        <geometry id="ID30">
            <mesh>
                <source id="ID31">
                    <float_array id="ID36" count="108">-75.23489 6201.485 0 -64.48705 6190.737 0 -75.23489 -75.23489 0 5975.797 6201.485 0 5965.05 6190.737 0 5965.05 4785.182 0 5965.05 4391.481 0 5965.05 -64.48705 0 -64.48705 -64.48705 0 5975.797 -75.23489 0 5922.058 4391.481 0 5922.058 4785.182 0 5965.05 4391.481 0 5965.05 4785.182 0 5922.058 4391.481 0 5922.058 4785.182 0 5975.797 6201.485 0 5965.05 -64.48705 0 5975.797 -75.23489 0 -64.48705 -64.48705 0 -64.48705 6190.737 0 -75.23489 -75.23489 0 5965.05 6190.737 0 -75.23489 6201.485 0 -75.23489 6201.485 0 -75.23489 -75.23489 0 5975.797 6201.485 0 5975.797 -75.23489 0 -64.48705 -64.48705 0 5965.05 -64.48705 0 5965.05 4391.481 0 5922.058 4391.481 0 5922.058 4785.182 0 5965.05 4785.182 0 5965.05 6190.737 0 -64.48705 6190.737 0</float_array>
                    <technique_common>
                        <accessor count="36" source="#ID36" stride="3">
                            <param name="X" type="float" />
                            <param name="Y" type="float" />
                            <param name="Z" type="float" />
                        </accessor>
                    </technique_common>
                </source>
                <source id="ID32">
                    <float_array id="ID37" count="108">0 0 -1 0 0 -1 0 0 -1 0 0 -1 0 0 -1 0 0 -1 0 0 -1 0 0 -1 0 0 -1 0 0 -1 0 0 -1 0 0 -1 -0 -0 1 -0 -0 1 -0 -0 1 -0 -0 1 -0 -0 1 -0 -0 1 -0 -0 1 -0 -0 1 -0 -0 1 -0 -0 1 -0 -0 1 -0 -0 1 0 0 0 0 0 0 0 0 0 0 0 0 0 0 0 0 0 0 0 0 0 0 0 0 0 0 0 0 0 0 0 0 0 0 0 0</float_array>
                    <technique_common>
                        <accessor count="36" source="#ID37" stride="3">
                            <param name="X" type="float" />
                            <param name="Y" type="float" />
                            <param name="Z" type="float" />
                        </accessor>
                    </technique_common>
                </source>
                <source id="ID33">
                    <Name_array id="ID39" count="0" />
                    <technique_common>
                        <accessor count="0" source="#ID39" stride="1">
                            <param name="skp_material" type="Name" />
                        </accessor>
                    </technique_common>
                </source>
                <source id="ID35">
                    <float_array id="ID38" count="24">0.3821933 31.50354 0.3275942 31.44894 0.3821933 -0.3821933 -30.35705 31.50354 -30.30245 31.44894 -30.30245 24.30872 -30.30245 22.30872 -30.30245 -0.3275942 0.3275942 -0.3275942 -30.35705 -0.3821933 -30.08406 22.30872 -30.08406 24.30872</float_array>
                    <technique_common>
                        <accessor count="12" source="#ID38" stride="2">
                            <param name="S" type="float" />
                            <param name="T" type="float" />
                        </accessor>
                    </technique_common>
                </source>
                <vertices id="ID34">
                    <input semantic="POSITION" source="#ID31" />
                    <input semantic="NORMAL" source="#ID32" />
                </vertices>
                <triangles count="24" material="Material2">
                    <input offset="0" semantic="VERTEX" source="#ID34" />
                    <input offset="1" semantic="TEXCOORD" source="#ID35" />
                    <p>0 0 1 1 2 2 1 1 0 0 3 3 1 1 3 3 4 4 4 4 3 3 5 5 5 5 3 3 6 6 6 6 3 3 7 7 2 2 8 8 9 9 8 8 2 2 1 1 9 9 8 8 7 7 9 9 7 7 3 3 5 5 10 10 11 11 10 10 5 5 6 6 12 6 13 5 14 10 15 11 14 10 13 5 16 3 17 7 18 9 17 7 19 8 18 9 20 1 21 2 19 8 18 9 19 8 21 2 17 7 16 3 12 6 12 6 16 3 13 5 13 5 16 3 22 4 22 4 16 3 20 1 16 3 23 0 20 1 21 2 20 1 23 0</p>
                </triangles>
                <lines count="12" material="Material3">
                    <input offset="0" semantic="VERTEX" source="#ID34" />
                    <p>24 25 26 24 27 26 25 27 28 29 29 30 30 31 31 32 33 32 33 34 34 35 35 28</p>
                </lines>
            </mesh>
        </geometry>
        <geometry id="ID40">
            <mesh>
                <source id="ID41">
                    <float_array id="ID43" count="6">5922.058 4785.182 393.7008 5922.058 4391.481 393.7008</float_array>
                    <technique_common>
                        <accessor count="2" source="#ID43" stride="3">
                            <param name="X" type="float" />
                            <param name="Y" type="float" />
                            <param name="Z" type="float" />
                        </accessor>
                    </technique_common>
                </source>
                <vertices id="ID42">
                    <input semantic="POSITION" source="#ID41" />
                </vertices>
                <lines count="1" material="Material2">
                    <input offset="0" semantic="VERTEX" source="#ID42" />
                    <p>1 0</p>
                </lines>
            </mesh>
        </geometry>
    </library_geometries>
    <library_materials>
        <material id="ID4" name="Concrete_Block_8x8_Gray">
            <instance_effect url="#ID5" />
        </material>
        <material id="ID14" name="edge_color1571581540">
            <instance_effect url="#ID15" />
        </material>
    </library_materials>
    <library_effects>
        <effect id="ID5">
            <profile_COMMON>
                <newparam sid="ID7">
                    <surface type="2D">
                        <init_from>ID6</init_from>
                    </surface>
                </newparam>
                <newparam sid="ID8">
                    <sampler2D>
                        <source>ID7</source>
                    </sampler2D>
                </newparam>
                <technique sid="COMMON">
                    <lambert>
                        <diffuse>
                            <texture texture="ID8" texcoord="UVSET0" />
                        </diffuse>
                    </lambert>
                </technique>
            </profile_COMMON>
        </effect>
        <effect id="ID15">
            <profile_COMMON>
                <technique sid="COMMON">
                    <constant>
                        <transparent opaque="A_ONE">
                            <color>0.6156863 0.6196078 0.6039216 0</color>
                        </transparent>
                        <transparency>
                            <float>1</float>
                        </transparency>
                    </constant>
                </technique>
            </profile_COMMON>
        </effect>
    </library_effects>
    <library_images>
        <image id="ID6">
            <init_from>muro/Concrete_Block_8x8_Gray.jpg</init_from>
        </image>
    </library_images>
    <scene>
        <instance_visual_scene url="#ID1" />
    </scene>
</COLLADA>
