<?xml version="1.0" encoding="UTF-8" standalone="no" ?>
<COLLADA xmlns="http://www.collada.org/2005/11/COLLADASchema" version="1.4.1">
    <asset>
        <contributor>
            <authoring_tool>SketchUp 16.0.19911</authoring_tool>
        </contributor>
        <created>2017-08-05T12:03:01Z</created>
        <modified>2017-08-05T12:03:01Z</modified>
        <unit meter="0.0254" name="inch" />
        <up_axis>Z_UP</up_axis>
    </asset>
    <library_visual_scenes>
        <visual_scene id="ID1">
            <node name="SketchUp">
                <node id="skp_camera" name="Last Saved SketchUp View">
                    <lookat>928.504 -1432.551 1166.42 631.575 -992.643 1032.029 -0.1373294 0.203457 0.9694049</lookat>
                </node>
                <node id="ID2" name="group_0">
                    <matrix>1 0 0 -399.6777 0 1 0 1189.959 0 0 1 0 0 0 0 1</matrix>
                    <instance_geometry url="#ID3">
                        <bind_material>
                            <technique_common>
                                <instance_material symbol="Material2" target="#ID4">
                                    <bind_vertex_input semantic="UVSET0" input_semantic="TEXCOORD" input_set="0" />
                                </instance_material>
                                <instance_material symbol="Material3" target="#ID14">
                                    <bind_vertex_input semantic="UVSET0" input_semantic="TEXCOORD" input_set="0" />
                                </instance_material>
                            </technique_common>
                        </bind_material>
                    </instance_geometry>
                    <instance_geometry url="#ID20">
                        <bind_material>
                            <technique_common>
                                <instance_material symbol="Material2" target="#ID4">
                                    <bind_vertex_input semantic="UVSET0" input_semantic="TEXCOORD" input_set="0" />
                                </instance_material>
                                <instance_material symbol="Material3" target="#ID14">
                                    <bind_vertex_input semantic="UVSET0" input_semantic="TEXCOORD" input_set="0" />
                                </instance_material>
                            </technique_common>
                        </bind_material>
                    </instance_geometry>
                    <instance_geometry url="#ID30">
                        <bind_material>
                            <technique_common>
                                <instance_material symbol="Material2" target="#ID4">
                                    <bind_vertex_input semantic="UVSET0" input_semantic="TEXCOORD" input_set="0" />
                                </instance_material>
                                <instance_material symbol="Material3" target="#ID14">
                                    <bind_vertex_input semantic="UVSET0" input_semantic="TEXCOORD" input_set="0" />
                                </instance_material>
                            </technique_common>
                        </bind_material>
                    </instance_geometry>
                    <instance_geometry url="#ID40">
                        <bind_material>
                            <technique_common>
                                <instance_material symbol="Material2" target="#ID4">
                                    <bind_vertex_input semantic="UVSET0" input_semantic="TEXCOORD" input_set="0" />
                                </instance_material>
                                <instance_material symbol="Material3" target="#ID14">
                                    <bind_vertex_input semantic="UVSET0" input_semantic="TEXCOORD" input_set="0" />
                                </instance_material>
                            </technique_common>
                        </bind_material>
                    </instance_geometry>
                    <instance_geometry url="#ID50">
                        <bind_material>
                            <technique_common>
                                <instance_material symbol="Material2" target="#ID4">
                                    <bind_vertex_input semantic="UVSET0" input_semantic="TEXCOORD" input_set="0" />
                                </instance_material>
                                <instance_material symbol="Material3" target="#ID14">
                                    <bind_vertex_input semantic="UVSET0" input_semantic="TEXCOORD" input_set="0" />
                                </instance_material>
                            </technique_common>
                        </bind_material>
                    </instance_geometry>
                    <instance_geometry url="#ID60">
                        <bind_material>
                            <technique_common>
                                <instance_material symbol="Material2" target="#ID4">
                                    <bind_vertex_input semantic="UVSET0" input_semantic="TEXCOORD" input_set="0" />
                                </instance_material>
                                <instance_material symbol="Material3" target="#ID14">
                                    <bind_vertex_input semantic="UVSET0" input_semantic="TEXCOORD" input_set="0" />
                                </instance_material>
                            </technique_common>
                        </bind_material>
                    </instance_geometry>
                    <instance_geometry url="#ID70">
                        <bind_material>
                            <technique_common>
                                <instance_material symbol="Material2" target="#ID4">
                                    <bind_vertex_input semantic="UVSET0" input_semantic="TEXCOORD" input_set="0" />
                                </instance_material>
                                <instance_material symbol="Material3" target="#ID14">
                                    <bind_vertex_input semantic="UVSET0" input_semantic="TEXCOORD" input_set="0" />
                                </instance_material>
                            </technique_common>
                        </bind_material>
                    </instance_geometry>
                    <instance_geometry url="#ID80">
                        <bind_material>
                            <technique_common>
                                <instance_material symbol="Material2" target="#ID4">
                                    <bind_vertex_input semantic="UVSET0" input_semantic="TEXCOORD" input_set="0" />
                                </instance_material>
                                <instance_material symbol="Material3" target="#ID14">
                                    <bind_vertex_input semantic="UVSET0" input_semantic="TEXCOORD" input_set="0" />
                                </instance_material>
                            </technique_common>
                        </bind_material>
                    </instance_geometry>
                </node>
            </node>
        </visual_scene>
    </library_visual_scenes>
    <library_geometries>
        <geometry id="ID3">
            <mesh>
                <source id="ID9">
                    <float_array id="ID16" count="264">411.6328 3 314.5938 411.6328 0 402.4688 411.6328 0 314.5938 411.6328 3 402.4688 411.6328 3 402.4688 411.6328 3 314.5938 411.6328 0 402.4688 411.6328 0 314.5938 411.6328 3 402.4688 411.6328 3 314.5938 411.6328 0 402.4688 411.6328 0 314.5938 411.6328 0 402.4688 352.8281 3 402.4688 352.8281 0 402.4688 411.6328 3 402.4688 411.6328 3 402.4688 411.6328 0 402.4688 352.8281 3 402.4688 352.8281 0 402.4688 352.8281 3 402.4688 352.8281 0 402.4688 355.8044 0 399.4925 349.7983 0 317.6235 355.8044 0 317.57 349.7983 0 399.439 297.0532 0 399.439 411.6328 0 314.5938 408.6566 0 317.57 352.8281 0 314.5938 411.6328 0 402.4688 294.0234 0 314.5938 408.6566 0 399.4925 297.0532 0 317.6235 294.0234 0 402.4688 352.8281 0 402.4688 352.8281 0 402.4688 411.6328 0 402.4688 294.0234 0 402.4688 355.8044 0 399.4925 297.0532 0 399.439 297.0532 0 317.6235 349.7983 0 317.6235 355.8044 0 317.57 408.6566 0 317.57 294.0234 0 314.5938 408.6566 0 399.4925 352.8281 0 314.5938 411.6328 0 314.5938 349.7983 0 399.439 352.8281 0 314.5938 294.0234 0 314.5938 294.0234 0 402.4688 297.0532 0 399.439 297.0532 0 317.6235 349.7983 0 399.439 349.7983 0 317.6235 408.6566 0 317.57 408.6566 0 399.4925 355.8044 0 317.57 355.8044 0 399.4925 411.6328 3 314.5938 352.8281 0 314.5938 352.8281 3 314.5938 411.6328 0 314.5938 411.6328 0 314.5938 411.6328 3 314.5938 352.8281 0 314.5938 352.8281 3 314.5938 352.8281 3 314.5938 294.0234 3 402.4688 294.0234 0 402.4688 294.0234 3 402.4688 294.0234 0 402.4688 294.0234 3 402.4688 294.0234 0 314.5938 294.0234 3 314.5938 294.0234 0 314.5938 294.0234 3 314.5938 294.0234 3 314.5938 294.0234 3 402.4688 294.0234 0 314.5938 294.0234 0 402.4688 294.0234 3 314.5938 294.0234 3 314.5938 294.0234 3 402.4688 294.0234 0 314.5938 294.0234 0 402.4688</float_array>
                    <technique_common>
                        <accessor count="88" source="#ID16" stride="3">
                            <param name="X" type="float" />
                            <param name="Y" type="float" />
                            <param name="Z" type="float" />
                        </accessor>
                    </technique_common>
                </source>
                <source id="ID10">
                    <float_array id="ID17" count="264">1 0 0 1 0 0 1 0 0 1 0 0 -1 -0 -0 -1 -0 -0 -1 -0 -0 -1 -0 -0 0 0 0 0 0 0 0 0 0 0 0 0 0 0 1 0 0 1 0 0 1 0 0 1 -0 -0 -1 -0 -0 -1 -0 -0 -1 -0 -0 -1 0 0 0 0 0 0 0 -1 0 0 -1 0 0 -1 0 0 -1 0 0 -1 0 0 -1 0 0 -1 0 0 -1 0 0 -1 0 0 -1 0 0 -1 0 0 -1 0 0 -1 0 0 -1 0 -0 1 -0 -0 1 -0 -0 1 -0 -0 1 -0 -0 1 -0 -0 1 -0 -0 1 -0 -0 1 -0 -0 1 -0 -0 1 -0 -0 1 -0 -0 1 -0 -0 1 -0 -0 1 -0 0 0 0 0 0 0 0 0 0 0 0 0 0 0 0 0 0 0 0 0 0 0 0 0 0 0 0 0 0 0 0 0 0 0 0 -1 0 0 -1 0 0 -1 0 0 -1 -0 -0 1 -0 -0 1 -0 -0 1 -0 -0 1 0 0 0 0 0 1 0 0 1 -0 -0 -1 -0 -0 -1 0 0 0 0 0 -1 0 0 -1 -0 -0 1 -0 -0 1 0 0 0 -1 -0 -0 -1 -0 -0 -1 -0 -0 -1 -0 -0 1 0 0 1 0 0 1 0 0 1 0 0</float_array>
                    <technique_common>
                        <accessor count="88" source="#ID17" stride="3">
                            <param name="X" type="float" />
                            <param name="Y" type="float" />
                            <param name="Z" type="float" />
                        </accessor>
                    </technique_common>
                </source>
                <source id="ID11">
                    <Name_array id="ID19" count="0" />
                    <technique_common>
                        <accessor count="0" source="#ID19" stride="1">
                            <param name="skp_material" type="Name" />
                        </accessor>
                    </technique_common>
                </source>
                <source id="ID13">
                    <float_array id="ID18" count="64">0.02721429 4.473547 0 5.723137 0 4.473547 0.02721429 5.723137 3.734098 0 3.200655 0.04266023 3.200655 0 3.734098 0.04266023 3.227654 5.680815 3.173171 4.516631 3.227654 4.51587 3.173171 5.680053 2.694697 5.680053 3.734098 4.473547 3.707099 4.51587 3.200655 4.473547 3.734098 5.723137 2.667213 4.473547 3.707099 5.680815 2.694697 4.516631 2.667213 5.723137 3.200655 5.723137 -3.734098 0.04266023 -3.200655 0 -3.200655 0.04266023 -3.734098 0 2.667213 0.04266023 2.667213 0 -2.667213 0 -2.667213 0.04266023 -0.02721429 5.723137 -0.02721429 4.473547</float_array>
                    <technique_common>
                        <accessor count="32" source="#ID18" stride="2">
                            <param name="S" type="float" />
                            <param name="T" type="float" />
                        </accessor>
                    </technique_common>
                </source>
                <vertices id="ID12">
                    <input semantic="POSITION" source="#ID9" />
                    <input semantic="NORMAL" source="#ID10" />
                </vertices>
                <triangles count="56" material="Material2">
                    <input offset="0" semantic="VERTEX" source="#ID12" />
                    <input offset="1" semantic="TEXCOORD" source="#ID13" />
                    <p>0 0 1 1 2 2 1 1 0 0 3 3 4 3 5 0 6 1 7 2 6 1 5 0 12 4 13 5 14 6 13 5 12 4 15 7 16 7 17 4 18 5 19 6 18 5 17 4 22 8 23 9 24 10 23 9 22 8 25 11 25 11 22 8 26 12 27 13 28 14 29 15 28 14 27 13 30 16 29 15 28 14 31 17 28 14 30 16 32 18 32 18 30 16 22 8 31 17 33 19 34 20 33 19 31 17 24 10 24 10 31 17 28 14 33 19 24 10 23 9 34 20 33 19 26 12 34 20 26 12 22 8 34 20 22 8 30 16 34 20 30 16 35 21 36 21 37 16 38 20 37 16 39 8 38 20 39 8 40 12 38 20 40 12 41 19 38 20 42 9 43 10 41 19 44 14 45 17 43 10 43 10 45 17 41 19 38 20 41 19 45 17 39 8 37 16 46 18 46 18 37 16 44 14 45 17 44 14 47 15 37 16 48 13 44 14 47 15 44 14 48 13 40 12 39 8 49 11 49 11 39 8 42 9 43 10 42 9 39 8 61 22 62 23 63 24 62 23 61 22 64 25 65 25 66 22 67 23 68 24 67 23 66 22 14 6 70 26 71 27 70 26 14 6 13 5 18 5 19 6 72 26 73 27 72 26 19 6 63 24 75 28 76 29 75 28 63 24 62 23 67 23 68 24 77 28 78 29 77 28 68 24 80 30 81 2 82 1 81 2 80 30 83 31 84 31 85 30 86 2 87 1 86 2 85 30</p>
                </triangles>
                <lines count="26" material="Material3">
                    <input offset="0" semantic="VERTEX" source="#ID12" />
                    <p>8 9 8 10 10 11 9 11 20 8 20 21 21 10 50 51 11 50 52 21 52 51 53 54 55 53 56 55 54 56 57 58 59 57 60 59 58 60 9 69 69 50 74 20 74 52 69 79 79 51 74 79</p>
                </lines>
            </mesh>
        </geometry>
        <geometry id="ID20">
            <mesh>
                <source id="ID21">
                    <float_array id="ID26" count="342">460.1826 13.25488 480 7.942377 973.3701 480 7.942377 13.25488 480 460.1826 973.3701 480 460.1826 44.94495 480 460.1826 119.8824 480 460.1826 119.8824 480 460.1826 44.94495 480 460.1826 973.3701 480 460.1826 13.25488 480 7.942377 973.3701 480 7.942377 13.25488 480 460.1826 44.94495 480 460.1826 119.8824 480 460.1826 973.3701 480 7.942377 973.3701 480 7.942377 13.25488 480 460.1826 13.25488 480 460.1826 44.94495 480 460.1826 13.25488 0 460.1826 13.25488 480 460.1826 973.3701 0 460.1826 119.8824 480 460.1826 973.3701 480 460.1826 973.3701 480 460.1826 119.8824 480 460.1826 973.3701 0 460.1826 44.94495 480 460.1826 13.25488 0 460.1826 13.25488 480 460.1826 13.25488 0 460.1826 973.3701 0 460.1826 973.3701 480 7.942377 973.3701 0 460.1826 973.3701 0 7.942377 973.3701 480 7.942377 973.3701 480 460.1826 973.3701 480 7.942377 973.3701 0 460.1826 973.3701 0 7.942377 973.3701 0 7.942377 973.3701 0 7.942377 13.25488 480 7.942377 13.25488 0 7.942377 973.3701 480 7.942377 973.3701 480 7.942377 973.3701 0 7.942377 13.25488 480 7.942377 13.25488 0 7.942377 13.25488 0 168.6566 13.25488 317.57 297.0532 13.25488 317.6235 355.8044 13.25488 317.57 168.6566 13.25488 399.4925 297.0532 13.25488 399.439 349.7983 13.25488 399.439 7.942377 13.25488 0 57.05322 13.25488 317.6235 460.1826 13.25488 0 7.942377 13.25488 480 115.8044 13.25488 317.57 57.05322 13.25488 399.439 109.7983 13.25488 399.439 115.8044 13.25488 399.4925 355.8044 13.25488 399.4925 408.6566 13.25488 399.4925 408.6566 13.25488 317.57 460.1826 13.25488 480 349.7983 13.25488 317.6235 109.7983 13.25488 317.6235 109.7983 13.25488 399.439 109.7983 13.25488 317.6235 115.8044 13.25488 399.4925 57.05322 13.25488 317.6235 115.8044 13.25488 317.57 168.6566 13.25488 399.4925 349.7983 13.25488 399.439 355.8044 13.25488 399.4925 349.7983 13.25488 317.6235 297.0532 13.25488 317.6235 355.8044 13.25488 317.57 7.942377 13.25488 480 408.6566 13.25488 399.4925 460.1826 13.25488 480 408.6566 13.25488 317.57 168.6566 13.25488 317.57 460.1826 13.25488 0 57.05322 13.25488 399.439 7.942377 13.25488 0 297.0532 13.25488 399.439 57.05322 13.25488 399.439 57.05322 13.25488 317.6235 109.7983 13.25488 317.6235 109.7983 13.25488 399.439 115.8044 13.25488 399.4925 115.8044 13.25488 317.57 168.6566 13.25488 317.57 168.6566 13.25488 399.4925 297.0532 13.25488 399.439 297.0532 13.25488 317.6235 349.7983 13.25488 317.6235 349.7983 13.25488 399.439 355.8044 13.25488 399.4925 355.8044 13.25488 317.57 408.6566 13.25488 317.57 408.6566 13.25488 399.4925 460.1826 973.3701 0 7.942377 13.25488 0 7.942377 973.3701 0 460.1826 13.25488 0 460.1826 13.25488 0 460.1826 973.3701 0 7.942377 13.25488 0 7.942377 973.3701 0</float_array>
                    <technique_common>
                        <accessor count="114" source="#ID26" stride="3">
                            <param name="X" type="float" />
                            <param name="Y" type="float" />
                            <param name="Z" type="float" />
                        </accessor>
                    </technique_common>
                </source>
                <source id="ID22">
                    <float_array id="ID27" count="342">0 0 1 0 0 1 0 0 1 0 0 1 0 0 1 0 0 1 -0 -0 -1 -0 -0 -1 -0 -0 -1 -0 -0 -1 -0 -0 -1 -0 -0 -1 0 0 0 0 0 0 0 0 0 0 0 0 0 0 0 0 0 0 -1 0 0 -1 0 0 -1 0 0 -1 0 0 -1 0 0 -1 0 0 1 -0 -0 1 -0 -0 1 -0 -0 1 -0 -0 1 -0 -0 1 -0 -0 0 0 0 0 0 0 -0 -1 -0 -0 -1 -0 -0 -1 -0 -0 -1 -0 0 1 0 0 1 0 0 1 0 0 1 0 0 0 0 1 0 0 1 0 0 1 0 0 1 0 0 -1 -0 -0 -1 -0 -0 -1 -0 -0 -1 -0 -0 0 0 0 0 1 0 0 1 0 0 1 0 0 1 0 0 1 0 0 1 0 0 1 0 0 1 0 0 1 0 0 1 0 0 1 0 0 1 0 0 1 0 0 1 0 0 1 0 0 1 0 0 1 0 0 1 0 0 1 0 0 1 0 -0 -1 -0 -0 -1 -0 -0 -1 -0 -0 -1 -0 -0 -1 -0 -0 -1 -0 -0 -1 -0 -0 -1 -0 -0 -1 -0 -0 -1 -0 -0 -1 -0 -0 -1 -0 -0 -1 -0 -0 -1 -0 -0 -1 -0 -0 -1 -0 -0 -1 -0 -0 -1 -0 -0 -1 -0 -0 -1 -0 0 0 0 0 0 0 0 0 0 0 0 0 0 0 0 0 0 0 0 0 0 0 0 0 0 0 0 0 0 0 0 0 0 0 0 0 0 0 0 0 0 0 0 0 0 0 0 0 0 0 -1 0 0 -1 0 0 -1 0 0 -1 -0 -0 1 -0 -0 1 -0 -0 1 -0 -0 1</float_array>
                    <technique_common>
                        <accessor count="114" source="#ID27" stride="3">
                            <param name="X" type="float" />
                            <param name="Y" type="float" />
                            <param name="Z" type="float" />
                        </accessor>
                    </technique_common>
                </source>
                <source id="ID23">
                    <Name_array id="ID29" count="0" />
                    <technique_common>
                        <accessor count="0" source="#ID29" stride="1">
                            <param name="skp_material" type="Name" />
                        </accessor>
                    </technique_common>
                </source>
                <source id="ID25">
                    <float_array id="ID28" count="88">4.174514 0.1884854 0.0720487 13.8414 0.0720487 0.1884854 4.174514 13.8414 4.174514 0.6391206 4.174514 1.704738 -0.4077149 6.825637 -0.1202407 0 -0.1202407 6.825637 -8.829858 0 -1.087505 6.825637 -8.829858 6.825637 4.174514 6.825637 0.0720487 0 4.174514 0 0.0720487 6.825637 8.829858 0 0.1202407 6.825637 0.1202407 0 8.829858 6.825637 -1.529956 4.51587 -2.694697 4.516631 -3.227654 4.51587 -1.529956 5.680815 -2.694697 5.680053 -3.173171 5.680053 -0.0720487 0 -0.5175542 4.516631 -4.174514 0 -0.0720487 6.825637 -1.050511 4.51587 -0.5175542 5.680053 -0.9960278 5.680053 -1.050511 5.680815 -3.227654 5.680815 -3.707099 5.680815 -3.707099 4.51587 -4.174514 6.825637 -3.173171 4.516631 -0.9960278 4.516631 -4.174514 13.8414 -0.0720487 0.1884854 -0.0720487 13.8414 -4.174514 0.1884854</float_array>
                    <technique_common>
                        <accessor count="44" source="#ID28" stride="2">
                            <param name="S" type="float" />
                            <param name="T" type="float" />
                        </accessor>
                    </technique_common>
                </source>
                <vertices id="ID24">
                    <input semantic="POSITION" source="#ID21" />
                    <input semantic="NORMAL" source="#ID22" />
                </vertices>
                <triangles count="80" material="Material2">
                    <input offset="0" semantic="VERTEX" source="#ID24" />
                    <input offset="1" semantic="TEXCOORD" source="#ID25" />
                    <p>0 0 1 1 2 2 1 1 0 0 3 3 3 3 0 0 4 4 3 3 4 4 5 5 6 5 7 4 8 3 7 4 9 0 8 3 8 3 9 0 10 1 11 2 10 1 9 0 18 6 19 7 20 8 19 7 18 6 21 9 21 9 18 6 22 10 21 9 22 10 23 11 24 11 25 10 26 9 25 10 27 6 26 9 26 9 27 6 28 7 29 8 28 7 27 6 32 12 33 13 34 14 33 13 32 12 35 15 36 15 37 12 38 13 39 14 38 13 37 12 41 16 42 17 43 18 42 17 41 16 44 19 45 19 46 16 47 17 48 18 47 17 46 16 50 20 51 21 52 22 51 21 50 20 53 23 51 21 53 23 54 24 54 24 53 23 55 25 56 26 57 27 58 28 57 27 56 26 59 29 58 28 57 27 60 30 57 27 59 29 61 31 61 31 59 29 62 32 62 32 59 29 63 33 63 33 59 29 53 23 53 23 59 29 64 34 64 34 59 29 65 35 58 28 66 36 67 37 66 36 58 28 60 30 66 36 60 30 50 20 66 36 50 20 52 22 67 37 66 36 65 35 67 37 65 35 59 29 52 22 68 38 64 34 68 38 52 22 51 21 64 34 68 38 55 25 64 34 55 25 53 23 60 30 69 39 63 33 69 39 60 30 57 27 63 33 69 39 62 32 70 32 71 39 72 33 73 27 74 30 71 39 72 33 71 39 74 30 75 23 76 25 77 34 76 25 78 38 77 34 79 21 80 22 78 38 77 34 78 38 80 22 81 29 82 35 83 37 82 35 84 36 83 37 80 22 85 20 84 36 85 20 74 30 84 36 74 30 86 28 84 36 83 37 84 36 86 28 82 35 81 29 77 34 77 34 81 29 75 23 75 23 81 29 72 33 72 33 81 29 70 32 70 32 81 29 87 31 87 31 81 29 73 27 74 30 73 27 86 28 81 29 88 26 73 27 86 28 73 27 88 26 76 25 75 23 89 24 89 24 75 23 79 21 75 23 85 20 79 21 80 22 79 21 85 20 106 40 107 41 108 42 107 41 106 40 109 43 110 43 111 40 112 41 113 42 112 41 111 40</p>
                </triangles>
                <lines count="30" material="Material3">
                    <input offset="0" semantic="VERTEX" source="#ID24" />
                    <p>12 13 13 14 14 15 15 16 16 17 17 12 30 31 30 17 31 14 31 40 40 15 40 49 49 16 49 30 90 91 91 92 92 93 93 90 94 95 95 96 96 97 97 94 98 99 99 100 100 101 101 98 102 103 103 104 104 105 105 102</p>
                </lines>
            </mesh>
        </geometry>
        <geometry id="ID30">
            <mesh>
                <source id="ID31">
                    <float_array id="ID36" count="120">109.7983 13.25488 399.439 57.05322 0 399.439 57.05322 13.25488 399.439 109.7983 0 399.439 109.7983 0 399.439 109.7983 13.25488 399.439 57.05322 0 399.439 57.05322 13.25488 399.439 109.7983 0 399.439 109.7983 13.25488 399.439 57.05322 0 399.439 57.05322 13.25488 399.439 109.7983 13.25488 399.439 109.7983 0 317.6235 109.7983 0 399.439 109.7983 13.25488 317.6235 109.7983 13.25488 317.6235 109.7983 13.25488 399.439 109.7983 0 317.6235 109.7983 0 399.439 109.7983 0 317.6235 109.7983 13.25488 317.6235 57.05322 13.25488 317.6235 57.05322 0 399.439 57.05322 0 317.6235 57.05322 13.25488 399.439 57.05322 13.25488 399.439 57.05322 13.25488 317.6235 57.05322 0 399.439 57.05322 0 317.6235 57.05322 0 317.6235 57.05322 13.25488 317.6235 109.7983 0 317.6235 57.05322 13.25488 317.6235 57.05322 0 317.6235 109.7983 13.25488 317.6235 109.7983 13.25488 317.6235 109.7983 0 317.6235 57.05322 13.25488 317.6235 57.05322 0 317.6235</float_array>
                    <technique_common>
                        <accessor count="40" source="#ID36" stride="3">
                            <param name="X" type="float" />
                            <param name="Y" type="float" />
                            <param name="Z" type="float" />
                        </accessor>
                    </technique_common>
                </source>
                <source id="ID32">
                    <float_array id="ID37" count="120">-0 -0 -1 -0 -0 -1 -0 -0 -1 -0 -0 -1 0 0 1 0 0 1 0 0 1 0 0 1 0 0 0 0 0 0 0 0 0 0 0 0 -1 0 0 -1 0 0 -1 0 0 -1 0 0 1 -0 -0 1 -0 -0 1 -0 -0 1 -0 -0 0 0 0 0 0 0 1 0 0 1 0 0 1 0 0 1 0 0 -1 -0 -0 -1 -0 -0 -1 -0 -0 -1 -0 -0 0 0 0 0 0 0 0 0 1 0 0 1 0 0 1 0 0 1 -0 -0 -1 -0 -0 -1 -0 -0 -1 -0 -0 -1</float_array>
                    <technique_common>
                        <accessor count="40" source="#ID37" stride="3">
                            <param name="X" type="float" />
                            <param name="Y" type="float" />
                            <param name="Z" type="float" />
                        </accessor>
                    </technique_common>
                </source>
                <source id="ID33">
                    <Name_array id="ID39" count="0" />
                    <technique_common>
                        <accessor count="0" source="#ID39" stride="1">
                            <param name="skp_material" type="Name" />
                        </accessor>
                    </technique_common>
                </source>
                <source id="ID35">
                    <float_array id="ID38" count="28">-0.9960278 0.1884854 -0.5175542 0 -0.5175542 0.1884854 -0.9960278 0 -0.1202407 5.680053 0 4.516631 0 5.680053 -0.1202407 4.516631 0.1202407 4.516631 0.1202407 5.680053 0.9960278 0 0.5175542 0.1884854 0.5175542 0 0.9960278 0.1884854</float_array>
                    <technique_common>
                        <accessor count="14" source="#ID38" stride="2">
                            <param name="S" type="float" />
                            <param name="T" type="float" />
                        </accessor>
                    </technique_common>
                </source>
                <vertices id="ID34">
                    <input semantic="POSITION" source="#ID31" />
                    <input semantic="NORMAL" source="#ID32" />
                </vertices>
                <triangles count="16" material="Material2">
                    <input offset="0" semantic="VERTEX" source="#ID34" />
                    <input offset="1" semantic="TEXCOORD" source="#ID35" />
                    <p>0 0 1 1 2 2 1 1 0 0 3 3 4 3 5 0 6 1 7 2 6 1 5 0 12 4 13 5 14 6 13 5 12 4 15 7 16 7 17 4 18 5 19 6 18 5 17 4 22 8 23 6 24 5 23 6 22 8 25 9 26 9 27 8 28 6 29 5 28 6 27 8 32 10 33 11 34 12 33 11 32 10 35 13 36 13 37 10 38 11 39 12 38 11 37 10</p>
                </triangles>
                <lines count="12" material="Material3">
                    <input offset="0" semantic="VERTEX" source="#ID34" />
                    <p>8 9 8 10 10 11 9 11 20 21 20 8 21 9 10 30 30 31 11 31 30 20 31 21</p>
                </lines>
            </mesh>
        </geometry>
        <geometry id="ID40">
            <mesh>
                <source id="ID41">
                    <float_array id="ID46" count="120">168.6566 0 317.57 115.8044 13.25488 317.57 115.8044 0 317.57 168.6566 13.25488 317.57 168.6566 13.25488 317.57 168.6566 0 317.57 115.8044 13.25488 317.57 115.8044 0 317.57 115.8044 0 317.57 115.8044 13.25488 317.57 168.6566 0 317.57 168.6566 13.25488 317.57 115.8044 13.25488 317.57 115.8044 0 399.4925 115.8044 0 317.57 115.8044 13.25488 399.4925 115.8044 13.25488 399.4925 115.8044 13.25488 317.57 115.8044 0 399.4925 115.8044 0 317.57 115.8044 0 399.4925 115.8044 13.25488 399.4925 168.6566 13.25488 399.4925 168.6566 0 317.57 168.6566 0 399.4925 168.6566 13.25488 317.57 168.6566 13.25488 317.57 168.6566 13.25488 399.4925 168.6566 0 317.57 168.6566 0 399.4925 168.6566 0 399.4925 168.6566 13.25488 399.4925 168.6566 13.25488 399.4925 115.8044 0 399.4925 115.8044 13.25488 399.4925 168.6566 0 399.4925 168.6566 0 399.4925 168.6566 13.25488 399.4925 115.8044 0 399.4925 115.8044 13.25488 399.4925</float_array>
                    <technique_common>
                        <accessor count="40" source="#ID46" stride="3">
                            <param name="X" type="float" />
                            <param name="Y" type="float" />
                            <param name="Z" type="float" />
                        </accessor>
                    </technique_common>
                </source>
                <source id="ID42">
                    <float_array id="ID47" count="120">0 0 1 0 0 1 0 0 1 0 0 1 -0 -0 -1 -0 -0 -1 -0 -0 -1 -0 -0 -1 0 0 0 0 0 0 0 0 0 0 0 0 1 0 0 1 0 0 1 0 0 1 0 0 -1 -0 -0 -1 -0 -0 -1 -0 -0 -1 -0 -0 0 0 0 0 0 0 -1 0 0 -1 0 0 -1 0 0 -1 0 0 1 -0 -0 1 -0 -0 1 -0 -0 1 -0 -0 0 0 0 0 0 0 -0 -0 -1 -0 -0 -1 -0 -0 -1 -0 -0 -1 0 0 1 0 0 1 0 0 1 0 0 1</float_array>
                    <technique_common>
                        <accessor count="40" source="#ID47" stride="3">
                            <param name="X" type="float" />
                            <param name="Y" type="float" />
                            <param name="Z" type="float" />
                        </accessor>
                    </technique_common>
                </source>
                <source id="ID43">
                    <Name_array id="ID49" count="0" />
                    <technique_common>
                        <accessor count="0" source="#ID49" stride="1">
                            <param name="skp_material" type="Name" />
                        </accessor>
                    </technique_common>
                </source>
                <source id="ID45">
                    <float_array id="ID48" count="28">1.529956 0 1.050511 0.1884854 1.050511 0 1.529956 0.1884854 0.1202407 4.51587 0 5.680815 0 4.51587 0.1202407 5.680815 -0.1202407 5.680815 -0.1202407 4.51587 -1.529956 0.1884854 -1.050511 0 -1.050511 0.1884854 -1.529956 0</float_array>
                    <technique_common>
                        <accessor count="14" source="#ID48" stride="2">
                            <param name="S" type="float" />
                            <param name="T" type="float" />
                        </accessor>
                    </technique_common>
                </source>
                <vertices id="ID44">
                    <input semantic="POSITION" source="#ID41" />
                    <input semantic="NORMAL" source="#ID42" />
                </vertices>
                <triangles count="16" material="Material2">
                    <input offset="0" semantic="VERTEX" source="#ID44" />
                    <input offset="1" semantic="TEXCOORD" source="#ID45" />
                    <p>0 0 1 1 2 2 1 1 0 0 3 3 4 3 5 0 6 1 7 2 6 1 5 0 12 4 13 5 14 6 13 5 12 4 15 7 16 7 17 4 18 5 19 6 18 5 17 4 22 8 23 6 24 5 23 6 22 8 25 9 26 9 27 8 28 6 29 5 28 6 27 8 32 10 33 11 34 12 33 11 32 10 35 13 36 13 37 10 38 11 39 12 38 11 37 10</p>
                </triangles>
                <lines count="12" material="Material3">
                    <input offset="0" semantic="VERTEX" source="#ID44" />
                    <p>8 9 8 10 10 11 9 11 20 21 20 8 21 9 10 30 30 31 11 31 30 20 31 21</p>
                </lines>
            </mesh>
        </geometry>
        <geometry id="ID50">
            <mesh>
                <source id="ID51">
                    <float_array id="ID56" count="348">470.4375 983.625 0 470.4375 3 480 470.4375 3 0 470.4375 983.625 480 470.4375 983.625 480 470.4375 983.625 0 470.4375 3 480 470.4375 3 0 470.4375 983.625 0 470.4375 3 0 470.4375 983.625 480 470.4375 3 480 0 983.625 0 7.942377 973.3701 0 0 3 0 470.4375 983.625 0 460.1826 973.3701 0 460.1826 13.25488 0 7.942377 13.25488 0 470.4375 3 0 470.4375 983.625 0 460.1826 13.25488 0 470.4375 3 0 7.942377 13.25488 0 7.942377 973.3701 0 0 3 0 460.1826 973.3701 0 0 983.625 0 0 3 0 0 983.625 0 7.942377 13.25488 0 460.1826 13.25488 0 460.1826 973.3701 0 7.942377 973.3701 0 0 983.625 480 470.4375 983.625 0 0 983.625 0 470.4375 983.625 480 470.4375 983.625 480 0 983.625 480 470.4375 983.625 0 0 983.625 0 0 983.625 480 0 3 480 7.942377 13.25488 480 0 983.625 480 470.4375 3 480 460.1826 13.25488 480 460.1826 44.94495 480 460.1826 119.8824 480 460.1826 973.3701 480 7.942377 973.3701 480 470.4375 983.625 480 470.4375 3 480 460.1826 973.3701 480 470.4375 983.625 480 7.942377 973.3701 480 7.942377 13.25488 480 0 983.625 480 460.1826 119.8824 480 460.1826 44.94495 480 460.1826 13.25488 480 0 3 480 0 3 480 7.942377 13.25488 480 460.1826 13.25488 480 7.942377 973.3701 480 460.1826 973.3701 480 460.1826 119.8824 480 460.1826 44.94495 480 470.4375 3 0 411.6328 3 314.5938 0 3 0 470.4375 3 480 411.6328 3 402.4688 352.8281 3 402.4688 294.0234 3 402.4688 171.6328 3 402.4688 54.02344 3 402.4688 54.02344 3 314.5938 0 3 480 352.8281 3 314.5938 294.0234 3 314.5938 171.6328 3 314.5938 171.6328 3 402.4688 294.0234 3 402.4688 171.6328 3 314.5938 294.0234 3 314.5938 470.4375 3 480 54.02344 3 402.4688 0 3 480 54.02344 3 314.5938 352.8281 3 314.5938 411.6328 3 314.5938 0 3 0 352.8281 3 402.4688 411.6328 3 402.4688 470.4375 3 0 352.8281 3 402.4688 411.6328 3 402.4688 411.6328 3 314.5938 352.8281 3 314.5938 294.0234 3 314.5938 294.0234 3 402.4688 54.02344 3 402.4688 54.02344 3 314.5938 171.6328 3 402.4688 171.6328 3 314.5938 0 983.625 480 0 3 0 0 3 480 0 983.625 0 0 983.625 0 0 983.625 480 0 3 0 0 3 480</float_array>
                    <technique_common>
                        <accessor count="116" source="#ID56" stride="3">
                            <param name="X" type="float" />
                            <param name="Y" type="float" />
                            <param name="Z" type="float" />
                        </accessor>
                    </technique_common>
                </source>
                <source id="ID52">
                    <float_array id="ID57" count="348">1 0 0 1 0 0 1 0 0 1 0 0 -1 -0 -0 -1 -0 -0 -1 -0 -0 -1 -0 -0 0 0 0 0 0 0 0 0 0 0 0 0 0 0 -1 0 0 -1 0 0 -1 0 0 -1 0 0 -1 0 0 -1 0 0 -1 0 0 -1 -0 -0 1 -0 -0 1 -0 -0 1 -0 -0 1 -0 -0 1 -0 -0 1 -0 -0 1 -0 -0 1 0 0 0 0 0 0 0 0 0 0 0 0 0 0 0 0 0 0 0 1 0 0 1 0 0 1 0 0 1 0 -0 -1 -0 -0 -1 -0 -0 -1 -0 -0 -1 -0 0 0 0 0 0 1 0 0 1 0 0 1 0 0 1 0 0 1 0 0 1 0 0 1 0 0 1 0 0 1 0 0 1 -0 -0 -1 -0 -0 -1 -0 -0 -1 -0 -0 -1 -0 -0 -1 -0 -0 -1 -0 -0 -1 -0 -0 -1 -0 -0 -1 -0 -0 -1 0 0 0 0 0 0 0 0 0 0 0 0 0 0 0 0 0 0 0 0 0 0 -1 0 0 -1 0 0 -1 0 0 -1 0 0 -1 0 0 -1 0 0 -1 0 0 -1 0 0 -1 0 0 -1 0 0 -1 0 0 -1 0 0 -1 0 0 -1 0 -0 1 -0 -0 1 -0 -0 1 -0 -0 1 -0 -0 1 -0 -0 1 -0 -0 1 -0 -0 1 -0 -0 1 -0 -0 1 -0 -0 1 -0 -0 1 -0 -0 1 -0 -0 1 -0 0 0 0 0 0 0 0 0 0 0 0 0 0 0 0 0 0 0 0 0 0 0 0 0 0 0 0 0 0 0 -1 0 0 -1 0 0 -1 0 0 -1 0 0 1 -0 -0 1 -0 -0 1 -0 -0 1 -0 -0</float_array>
                    <technique_common>
                        <accessor count="116" source="#ID57" stride="3">
                            <param name="X" type="float" />
                            <param name="Y" type="float" />
                            <param name="Z" type="float" />
                        </accessor>
                    </technique_common>
                </source>
                <source id="ID53">
                    <Name_array id="ID59" count="0" />
                    <technique_common>
                        <accessor count="0" source="#ID59" stride="1">
                            <param name="skp_material" type="Name" />
                        </accessor>
                    </technique_common>
                </source>
                <source id="ID55">
                    <float_array id="ID58" count="80">8.922884 0 0.02721429 6.825637 0.02721429 0 8.922884 6.825637 0 13.98722 -0.0720487 13.8414 0 0.04266023 -4.26754 13.98722 -4.174514 13.8414 -4.174514 0.1884854 -0.0720487 0.1884854 -4.26754 0.04266023 0 6.825637 -4.26754 0 0 0 -4.26754 6.825637 0.0720487 0.1884854 4.26754 0.04266023 4.174514 0.1884854 4.174514 0.6391206 4.174514 1.704738 4.174514 13.8414 0.0720487 13.8414 4.26754 13.98722 4.26754 0 3.734098 4.473547 4.26754 6.825637 3.734098 5.723137 3.200655 5.723137 2.667213 5.723137 1.556955 5.723137 0.4900698 5.723137 0.4900698 4.473547 3.200655 4.473547 2.667213 4.473547 1.556955 4.473547 -8.922884 6.825637 -0.02721429 0 -0.02721429 6.825637 -8.922884 0</float_array>
                    <technique_common>
                        <accessor count="40" source="#ID58" stride="2">
                            <param name="S" type="float" />
                            <param name="T" type="float" />
                        </accessor>
                    </technique_common>
                </source>
                <vertices id="ID54">
                    <input semantic="POSITION" source="#ID51" />
                    <input semantic="NORMAL" source="#ID52" />
                </vertices>
                <triangles count="80" material="Material2">
                    <input offset="0" semantic="VERTEX" source="#ID54" />
                    <input offset="1" semantic="TEXCOORD" source="#ID55" />
                    <p>0 0 1 1 2 2 1 1 0 0 3 3 4 3 5 0 6 1 7 2 6 1 5 0 12 4 13 5 14 6 13 5 12 4 15 7 13 5 15 7 16 8 16 8 15 7 17 9 14 6 18 10 19 11 18 10 14 6 13 5 19 11 18 10 17 9 19 11 17 9 15 7 20 7 21 9 22 11 21 9 23 10 22 11 24 5 25 6 23 10 22 11 23 10 25 6 21 9 20 7 26 8 26 8 20 7 24 5 20 7 27 4 24 5 25 6 24 5 27 4 34 12 35 13 36 14 35 13 34 12 37 15 38 15 39 12 40 13 41 14 40 13 39 12 43 6 44 16 45 4 44 16 43 6 46 17 44 16 46 17 47 18 47 18 46 17 48 19 48 19 46 17 49 20 49 20 46 17 50 21 45 4 51 22 52 23 51 22 45 4 44 16 52 23 51 22 50 21 52 23 50 21 46 17 53 17 54 21 55 23 54 21 56 22 55 23 57 16 58 4 56 22 55 23 56 22 58 4 54 21 53 17 59 20 59 20 53 17 60 19 60 19 53 17 61 18 61 18 53 17 57 16 53 17 62 6 57 16 58 4 57 16 62 6 70 24 71 25 72 14 71 25 70 24 73 26 71 25 73 26 74 27 74 27 73 26 75 28 75 28 73 26 76 29 76 29 73 26 77 30 77 30 73 26 78 31 72 14 79 32 80 12 79 32 72 14 71 25 79 32 71 25 81 33 79 32 81 33 82 34 79 32 82 34 83 35 80 12 79 32 78 31 80 12 78 31 73 26 76 29 83 35 82 34 83 35 76 29 77 30 84 30 85 29 86 35 87 34 86 35 85 29 88 26 89 31 90 12 89 31 91 32 90 12 86 35 87 34 91 32 87 34 92 33 91 32 92 33 93 25 91 32 93 25 94 14 91 32 90 12 91 32 94 14 89 31 88 26 84 30 84 30 88 26 85 29 85 29 88 26 95 28 95 28 88 26 96 27 96 27 88 26 93 25 88 26 97 24 93 25 94 14 93 25 97 24 108 36 109 37 110 38 109 37 108 36 111 39 112 39 113 36 114 37 115 38 114 37 113 36</p>
                </triangles>
                <lines count="32" material="Material3">
                    <input offset="0" semantic="VERTEX" source="#ID54" />
                    <p>8 9 8 10 10 11 9 11 9 28 28 29 29 8 30 31 31 32 32 33 33 30 29 42 42 10 11 63 63 42 64 65 66 64 67 66 68 67 69 68 65 69 28 63 98 99 99 100 100 101 101 102 103 102 103 98 104 105 106 104 106 107 107 105</p>
                </lines>
            </mesh>
        </geometry>
        <geometry id="ID60">
            <mesh>
                <source id="ID61">
                    <float_array id="ID66" count="120">349.7983 13.25488 399.439 349.7983 0 317.6235 349.7983 0 399.439 349.7983 13.25488 317.6235 349.7983 13.25488 317.6235 349.7983 13.25488 399.439 349.7983 0 317.6235 349.7983 0 399.439 349.7983 0 317.6235 349.7983 13.25488 317.6235 349.7983 0 399.439 349.7983 13.25488 399.439 349.7983 0 317.6235 297.0532 13.25488 317.6235 297.0532 0 317.6235 349.7983 13.25488 317.6235 349.7983 13.25488 317.6235 349.7983 0 317.6235 297.0532 13.25488 317.6235 297.0532 0 317.6235 297.0532 0 317.6235 297.0532 13.25488 317.6235 349.7983 13.25488 399.439 297.0532 0 399.439 297.0532 13.25488 399.439 349.7983 0 399.439 349.7983 0 399.439 349.7983 13.25488 399.439 297.0532 0 399.439 297.0532 13.25488 399.439 297.0532 0 399.439 297.0532 13.25488 399.439 297.0532 13.25488 317.6235 297.0532 0 399.439 297.0532 0 317.6235 297.0532 13.25488 399.439 297.0532 13.25488 399.439 297.0532 13.25488 317.6235 297.0532 0 399.439 297.0532 0 317.6235</float_array>
                    <technique_common>
                        <accessor count="40" source="#ID66" stride="3">
                            <param name="X" type="float" />
                            <param name="Y" type="float" />
                            <param name="Z" type="float" />
                        </accessor>
                    </technique_common>
                </source>
                <source id="ID62">
                    <float_array id="ID67" count="120">-1 0 0 -1 0 0 -1 0 0 -1 0 0 1 -0 -0 1 -0 -0 1 -0 -0 1 -0 -0 0 0 0 0 0 0 0 0 0 0 0 0 0 0 1 0 0 1 0 0 1 0 0 1 -0 -0 -1 -0 -0 -1 -0 -0 -1 -0 -0 -1 0 0 0 0 0 0 -0 -0 -1 -0 -0 -1 -0 -0 -1 -0 -0 -1 0 0 1 0 0 1 0 0 1 0 0 1 0 0 0 0 0 0 1 0 0 1 0 0 1 0 0 1 0 0 -1 -0 -0 -1 -0 -0 -1 -0 -0 -1 -0 -0</float_array>
                    <technique_common>
                        <accessor count="40" source="#ID67" stride="3">
                            <param name="X" type="float" />
                            <param name="Y" type="float" />
                            <param name="Z" type="float" />
                        </accessor>
                    </technique_common>
                </source>
                <source id="ID63">
                    <Name_array id="ID69" count="0" />
                    <technique_common>
                        <accessor count="0" source="#ID69" stride="1">
                            <param name="skp_material" type="Name" />
                        </accessor>
                    </technique_common>
                </source>
                <source id="ID65">
                    <float_array id="ID68" count="28">-0.1202407 5.680053 0 4.516631 0 5.680053 -0.1202407 4.516631 3.173171 0 2.694697 0.1884854 2.694697 0 3.173171 0.1884854 -3.173171 0.1884854 -2.694697 0 -2.694697 0.1884854 -3.173171 0 0.1202407 4.516631 0.1202407 5.680053</float_array>
                    <technique_common>
                        <accessor count="14" source="#ID68" stride="2">
                            <param name="S" type="float" />
                            <param name="T" type="float" />
                        </accessor>
                    </technique_common>
                </source>
                <vertices id="ID64">
                    <input semantic="POSITION" source="#ID61" />
                    <input semantic="NORMAL" source="#ID62" />
                </vertices>
                <triangles count="16" material="Material2">
                    <input offset="0" semantic="VERTEX" source="#ID64" />
                    <input offset="1" semantic="TEXCOORD" source="#ID65" />
                    <p>0 0 1 1 2 2 1 1 0 0 3 3 4 3 5 0 6 1 7 2 6 1 5 0 12 4 13 5 14 6 13 5 12 4 15 7 16 7 17 4 18 5 19 6 18 5 17 4 22 8 23 9 24 10 23 9 22 8 25 11 26 11 27 8 28 9 29 10 28 9 27 8 32 12 33 2 34 1 33 2 32 12 35 13 36 13 37 12 38 2 39 1 38 2 37 12</p>
                </triangles>
                <lines count="12" material="Material3">
                    <input offset="0" semantic="VERTEX" source="#ID64" />
                    <p>8 9 8 10 10 11 9 11 20 21 20 8 21 9 10 30 30 31 11 31 30 20 31 21</p>
                </lines>
            </mesh>
        </geometry>
        <geometry id="ID70">
            <mesh>
                <source id="ID71">
                    <float_array id="ID76" count="120">408.6566 13.25488 399.4925 408.6566 0 317.57 408.6566 0 399.4925 408.6566 13.25488 317.57 408.6566 13.25488 317.57 408.6566 13.25488 399.4925 408.6566 0 317.57 408.6566 0 399.4925 408.6566 0 317.57 408.6566 13.25488 317.57 408.6566 0 399.4925 408.6566 13.25488 399.4925 408.6566 0 317.57 355.8044 13.25488 317.57 355.8044 0 317.57 408.6566 13.25488 317.57 408.6566 13.25488 317.57 408.6566 0 317.57 355.8044 13.25488 317.57 355.8044 0 317.57 355.8044 0 317.57 355.8044 13.25488 317.57 408.6566 13.25488 399.4925 355.8044 0 399.4925 355.8044 13.25488 399.4925 408.6566 0 399.4925 408.6566 0 399.4925 408.6566 13.25488 399.4925 355.8044 0 399.4925 355.8044 13.25488 399.4925 355.8044 0 399.4925 355.8044 13.25488 399.4925 355.8044 13.25488 317.57 355.8044 0 399.4925 355.8044 0 317.57 355.8044 13.25488 399.4925 355.8044 13.25488 399.4925 355.8044 13.25488 317.57 355.8044 0 399.4925 355.8044 0 317.57</float_array>
                    <technique_common>
                        <accessor count="40" source="#ID76" stride="3">
                            <param name="X" type="float" />
                            <param name="Y" type="float" />
                            <param name="Z" type="float" />
                        </accessor>
                    </technique_common>
                </source>
                <source id="ID72">
                    <float_array id="ID77" count="120">-1 0 0 -1 0 0 -1 0 0 -1 0 0 1 -0 -0 1 -0 -0 1 -0 -0 1 -0 -0 0 0 0 0 0 0 0 0 0 0 0 0 0 0 1 0 0 1 0 0 1 0 0 1 -0 -0 -1 -0 -0 -1 -0 -0 -1 -0 -0 -1 0 0 0 0 0 0 -0 -0 -1 -0 -0 -1 -0 -0 -1 -0 -0 -1 0 0 1 0 0 1 0 0 1 0 0 1 0 0 0 0 0 0 1 0 0 1 0 0 1 0 0 1 0 0 -1 -0 -0 -1 -0 -0 -1 -0 -0 -1 -0 -0</float_array>
                    <technique_common>
                        <accessor count="40" source="#ID77" stride="3">
                            <param name="X" type="float" />
                            <param name="Y" type="float" />
                            <param name="Z" type="float" />
                        </accessor>
                    </technique_common>
                </source>
                <source id="ID73">
                    <Name_array id="ID79" count="0" />
                    <technique_common>
                        <accessor count="0" source="#ID79" stride="1">
                            <param name="skp_material" type="Name" />
                        </accessor>
                    </technique_common>
                </source>
                <source id="ID75">
                    <float_array id="ID78" count="28">-0.1202407 5.680815 0 4.51587 0 5.680815 -0.1202407 4.51587 3.707099 0 3.227654 0.1884854 3.227654 0 3.707099 0.1884854 -3.707099 0.1884854 -3.227654 0 -3.227654 0.1884854 -3.707099 0 0.1202407 4.51587 0.1202407 5.680815</float_array>
                    <technique_common>
                        <accessor count="14" source="#ID78" stride="2">
                            <param name="S" type="float" />
                            <param name="T" type="float" />
                        </accessor>
                    </technique_common>
                </source>
                <vertices id="ID74">
                    <input semantic="POSITION" source="#ID71" />
                    <input semantic="NORMAL" source="#ID72" />
                </vertices>
                <triangles count="16" material="Material2">
                    <input offset="0" semantic="VERTEX" source="#ID74" />
                    <input offset="1" semantic="TEXCOORD" source="#ID75" />
                    <p>0 0 1 1 2 2 1 1 0 0 3 3 4 3 5 0 6 1 7 2 6 1 5 0 12 4 13 5 14 6 13 5 12 4 15 7 16 7 17 4 18 5 19 6 18 5 17 4 22 8 23 9 24 10 23 9 22 8 25 11 26 11 27 8 28 9 29 10 28 9 27 8 32 12 33 2 34 1 33 2 32 12 35 13 36 13 37 12 38 2 39 1 38 2 37 12</p>
                </triangles>
                <lines count="12" material="Material3">
                    <input offset="0" semantic="VERTEX" source="#ID74" />
                    <p>8 9 8 10 10 11 9 11 20 21 20 8 21 9 10 30 30 31 11 31 30 20 31 21</p>
                </lines>
            </mesh>
        </geometry>
        <geometry id="ID80">
            <mesh>
                <source id="ID81">
                    <float_array id="ID86" count="216">115.8044 0 399.4925 109.7983 0 317.6235 115.8044 0 317.57 109.7983 0 399.439 57.05322 0 399.439 171.6328 0 314.5938 168.6566 0 317.57 54.02344 0 314.5938 171.6328 0 402.4688 168.6566 0 399.4925 57.05322 0 317.6235 54.02344 0 402.4688 171.6328 0 402.4688 115.8044 0 399.4925 54.02344 0 402.4688 57.05322 0 399.439 57.05322 0 317.6235 109.7983 0 317.6235 115.8044 0 317.57 168.6566 0 317.57 54.02344 0 314.5938 168.6566 0 399.4925 171.6328 0 314.5938 109.7983 0 399.439 171.6328 0 402.4688 54.02344 0 402.4688 54.02344 0 314.5938 171.6328 0 314.5938 115.8044 0 399.4925 115.8044 0 317.57 168.6566 0 399.4925 168.6566 0 317.57 57.05322 0 399.439 57.05322 0 317.6235 109.7983 0 399.439 109.7983 0 317.6235 171.6328 0 402.4688 54.02344 3 402.4688 54.02344 0 402.4688 171.6328 3 402.4688 171.6328 3 402.4688 171.6328 0 402.4688 54.02344 3 402.4688 54.02344 0 402.4688 171.6328 3 402.4688 54.02344 3 402.4688 54.02344 3 402.4688 54.02344 0 314.5938 54.02344 0 402.4688 54.02344 3 314.5938 54.02344 3 314.5938 54.02344 3 402.4688 54.02344 0 314.5938 54.02344 0 402.4688 54.02344 3 314.5938 171.6328 3 314.5938 54.02344 0 314.5938 54.02344 3 314.5938 171.6328 0 314.5938 171.6328 0 314.5938 171.6328 3 314.5938 54.02344 0 314.5938 54.02344 3 314.5938 171.6328 3 314.5938 171.6328 3 314.5938 171.6328 0 402.4688 171.6328 0 314.5938 171.6328 3 402.4688 171.6328 3 402.4688 171.6328 3 314.5938 171.6328 0 402.4688 171.6328 0 314.5938</float_array>
                    <technique_common>
                        <accessor count="72" source="#ID86" stride="3">
                            <param name="X" type="float" />
                            <param name="Y" type="float" />
                            <param name="Z" type="float" />
                        </accessor>
                    </technique_common>
                </source>
                <source id="ID82">
                    <float_array id="ID87" count="216">0 -1 0 0 -1 0 0 -1 0 0 -1 0 0 -1 0 0 -1 0 0 -1 0 0 -1 0 0 -1 0 0 -1 0 0 -1 0 0 -1 0 -0 1 -0 -0 1 -0 -0 1 -0 -0 1 -0 -0 1 -0 -0 1 -0 -0 1 -0 -0 1 -0 -0 1 -0 -0 1 -0 -0 1 -0 -0 1 -0 0 0 0 0 0 0 0 0 0 0 0 0 0 0 0 0 0 0 0 0 0 0 0 0 0 0 0 0 0 0 0 0 0 0 0 0 0 0 1 0 0 1 0 0 1 0 0 1 -0 -0 -1 -0 -0 -1 -0 -0 -1 -0 -0 -1 0 0 0 0 0 0 -1 -0 -0 -1 -0 -0 -1 -0 -0 -1 -0 -0 1 0 0 1 0 0 1 0 0 1 0 0 0 0 0 0 0 -1 0 0 -1 0 0 -1 0 0 -1 -0 -0 1 -0 -0 1 -0 -0 1 -0 -0 1 0 0 0 1 0 0 1 0 0 1 0 0 1 0 0 -1 -0 -0 -1 -0 -0 -1 -0 -0 -1 -0 -0</float_array>
                    <technique_common>
                        <accessor count="72" source="#ID87" stride="3">
                            <param name="X" type="float" />
                            <param name="Y" type="float" />
                            <param name="Z" type="float" />
                        </accessor>
                    </technique_common>
                </source>
                <source id="ID83">
                    <Name_array id="ID89" count="0" />
                    <technique_common>
                        <accessor count="0" source="#ID89" stride="1">
                            <param name="skp_material" type="Name" />
                        </accessor>
                    </technique_common>
                </source>
                <source id="ID85">
                    <float_array id="ID88" count="52">1.050511 5.680815 0.9960278 4.516631 1.050511 4.51587 0.9960278 5.680053 0.5175542 5.680053 1.556955 4.473547 1.529956 4.51587 0.4900698 4.473547 1.556955 5.723137 1.529956 5.680815 0.5175542 4.516631 0.4900698 5.723137 1.556955 0 0.4900698 0.04266023 0.4900698 0 1.556955 0.04266023 -0.02721429 5.723137 0 4.473547 0 5.723137 -0.02721429 4.473547 -1.556955 0.04266023 -0.4900698 0 -0.4900698 0.04266023 -1.556955 0 0.02721429 4.473547 0.02721429 5.723137</float_array>
                    <technique_common>
                        <accessor count="26" source="#ID88" stride="2">
                            <param name="S" type="float" />
                            <param name="T" type="float" />
                        </accessor>
                    </technique_common>
                </source>
                <vertices id="ID84">
                    <input semantic="POSITION" source="#ID81" />
                    <input semantic="NORMAL" source="#ID82" />
                </vertices>
                <triangles count="44" material="Material2">
                    <input offset="0" semantic="VERTEX" source="#ID84" />
                    <input offset="1" semantic="TEXCOORD" source="#ID85" />
                    <p>0 0 1 1 2 2 1 1 0 0 3 3 3 3 0 0 4 4 5 5 6 6 7 7 6 6 5 5 8 8 6 6 8 8 9 9 9 9 8 8 0 0 7 7 10 10 11 11 10 10 7 7 2 2 2 2 7 7 6 6 10 10 2 2 1 1 11 11 10 10 4 4 11 11 4 4 0 0 11 11 0 0 8 8 12 8 13 0 14 11 13 0 15 4 14 11 15 4 16 10 14 11 17 1 18 2 16 10 19 6 20 7 18 2 18 2 20 7 16 10 14 11 16 10 20 7 13 0 12 8 21 9 21 9 12 8 19 6 12 8 22 5 19 6 20 7 19 6 22 5 15 4 13 0 23 3 23 3 13 0 17 1 18 2 17 1 13 0 36 12 37 13 38 14 37 13 36 12 39 15 40 15 41 12 42 13 43 14 42 13 41 12 46 16 47 17 48 18 47 17 46 16 49 19 50 19 51 16 52 17 53 18 52 17 51 16 55 20 56 21 57 22 56 21 55 20 58 23 59 23 60 20 61 21 62 22 61 21 60 20 64 24 65 18 66 17 65 18 64 24 67 25 68 25 69 24 70 18 71 17 70 18 69 24</p>
                </triangles>
                <lines count="20" material="Material3">
                    <input offset="0" semantic="VERTEX" source="#ID84" />
                    <p>24 25 25 26 27 26 24 27 28 29 30 28 31 30 29 31 32 33 34 32 35 34 33 35 44 45 45 25 44 24 45 54 54 26 63 54 63 27 44 63</p>
                </lines>
            </mesh>
        </geometry>
    </library_geometries>
    <library_materials>
        <material id="ID4" name="Brick_Antique_01">
            <instance_effect url="#ID5" />
        </material>
        <material id="ID14" name="edge_color147105710">
            <instance_effect url="#ID15" />
        </material>
    </library_materials>
    <library_effects>
        <effect id="ID5">
            <profile_COMMON>
                <newparam sid="ID7">
                    <surface type="2D">
                        <init_from>ID6</init_from>
                    </surface>
                </newparam>
                <newparam sid="ID8">
                    <sampler2D>
                        <source>ID7</source>
                    </sampler2D>
                </newparam>
                <technique sid="COMMON">
                    <lambert>
                        <diffuse>
                            <texture texture="ID8" texcoord="UVSET0" />
                        </diffuse>
                    </lambert>
                </technique>
            </profile_COMMON>
        </effect>
        <effect id="ID15">
            <profile_COMMON>
                <technique sid="COMMON">
                    <constant>
                        <transparent opaque="A_ONE">
                            <color>0.5764706 0.4117647 0.2784314 0</color>
                        </transparent>
                        <transparency>
                            <float>1</float>
                        </transparency>
                    </constant>
                </technique>
            </profile_COMMON>
        </effect>
    </library_effects>
    <library_images>
        <image id="ID6">
            <init_from>edificio0/Brick_Antique_01.jpg</init_from>
        </image>
    </library_images>
    <scene>
        <instance_visual_scene url="#ID1" />
    </scene>
</COLLADA>
